# Created by FreeCAD <http://www.freecadweb.org>

v 10.000000 10.000000 10.000000
v -0.000000 -10.000000 10.000000
v 10.000000 -10.000000 10.000000
v -0.000000 10.000000 10.000000
v 0.000000 10.000000 -10.000000
v 10.000000 10.000000 -10.000000
v 0.000000 -10.000000 -10.000000
v 10.000000 -10.000000 -10.000000
v 0.000000 -10.000000 -10.000000
v -0.000000 -10.000000 10.000000
v -0.000000 10.000000 10.000000
v 0.000000 10.000000 -10.000000
v 10.000000 -10.000000 10.000000
v 10.000000 -10.000000 -10.000000
v 10.000000 10.000000 10.000000
v 10.000000 10.000000 -10.000000

vn 0.000000 0.000000 1.000000
vn -0.000000 0.000000 1.000000
vn 0.000000 1.000000 -0.000000
vn 0.000000 1.000000 0.000000
vn 0.000000 0.000000 -1.000000
vn 0.000000 0.000000 -1.000000
vn 0.000000 -1.000000 -0.000000
vn 0.000000 -1.000000 0.000000
vn -1.000000 0.000000 -0.000000
vn -1.000000 0.000000 -0.000000
vn 1.000000 -0.000000 0.000000
vn 1.000000 0.000000 0.000000

f 1//1 2//1 3//1
f 4//2 2//2 1//2
f 5//3 4//3 1//3
f 5//4 1//4 6//4
f 7//5 5//5 6//5
f 7//6 6//6 8//6
f 3//7 7//7 8//7
f 2//8 7//8 3//8
f 9//9 10//9 11//9
f 9//10 11//10 12//10
f 13//11 14//11 15//11
f 15//12 14//12 16//12
