# OBJ file created by ply_to_obj.c
#
g Octahedron

v  1  0  0
v  0  -1  0
v  -1  0  0
v  0  1  0
v  0  0  1
v  0  0  -1

f  2  1  5
f  3  2  5
f  4  3  5
f  1  4  5
f  1  2  6
f  2  3  6
f  3  4  6
f  4  1  6
